<?xml version="1.0" ?>
<VTKFile type="PUnstructuredGrid" version="0.1" byte_order="LittleEndian">
<PUnstructuredGrid>
<PPoints>
<PDataArray Name="Coordinates" type="Float64" NumberOfComponents="3" /></PPoints>
<PCells>
<PDataArray Name="connectivity" type="Int32" NumberOfComponents="" /><PDataArray Name="offsets" type="Int32" NumberOfComponents="" /><PDataArray Name="types" type="UInt8" NumberOfComponents="" /></PCells>
<PPointData>
<PDataArray Name="Depth averaged velocity" type="Float64" NumberOfComponents="3" /></PPointData>
<Piece Source="Velocity2d_28_0.vtu" />
<Piece Source="Velocity2d_28_1.vtu" />
<Piece Source="Velocity2d_28_2.vtu" />
<Piece Source="Velocity2d_28_3.vtu" />
</PUnstructuredGrid>
</VTKFile>
